%YAML 1.1
%TAG !u! tag:unity3d.com,2011:
--- !u!1 &1750001933953903688
GameObject:
  m_ObjectHideFlags: 0
  m_CorrespondingSourceObject: {fileID: 0}
  m_PrefabInstance: {fileID: 0}
  m_PrefabAsset: {fileID: 0}
  serializedVersion: 6
  m_Component:
  - component: {fileID: 180682620144732037}
  m_Layer: 0
  m_Name: Level0
  m_TagString: Untagged
  m_Icon: {fileID: 0}
  m_NavMeshLayer: 0
  m_StaticEditorFlags: 0
  m_IsActive: 1
--- !u!4 &180682620144732037
Transform:
  m_ObjectHideFlags: 0
  m_CorrespondingSourceObject: {fileID: 0}
  m_PrefabInstance: {fileID: 0}
  m_PrefabAsset: {fileID: 0}
  m_GameObject: {fileID: 1750001933953903688}
  m_LocalRotation: {x: 0, y: 0, z: 0, w: 1}
  m_LocalPosition: {x: 0, y: 0, z: 0}
  m_LocalScale: {x: 1, y: 1, z: 1}
  m_Children:
  - {fileID: 4742465401718310135}
  m_Father: {fileID: 0}
  m_RootOrder: 0
  m_LocalEulerAnglesHint: {x: 0, y: 0, z: 0}
--- !u!1001 &2615547246107635143
PrefabInstance:
  m_ObjectHideFlags: 0
  serializedVersion: 2
  m_Modification:
    m_TransformParent: {fileID: 180682620144732037}
    m_Modifications:
    - target: {fileID: 5227827999842016377, guid: 1e23d9d601cfe354db8f32c6ec9eac31, type: 3}
      propertyPath: m_Name
      value: Brick
      objectReference: {fileID: 0}
    - target: {fileID: 7321961819201808688, guid: 1e23d9d601cfe354db8f32c6ec9eac31, type: 3}
      propertyPath: m_RootOrder
      value: 0
      objectReference: {fileID: 0}
    - target: {fileID: 7321961819201808688, guid: 1e23d9d601cfe354db8f32c6ec9eac31, type: 3}
      propertyPath: m_LocalPosition.x
      value: 0
      objectReference: {fileID: 0}
    - target: {fileID: 7321961819201808688, guid: 1e23d9d601cfe354db8f32c6ec9eac31, type: 3}
      propertyPath: m_LocalPosition.y
      value: 1.6
      objectReference: {fileID: 0}
    - target: {fileID: 7321961819201808688, guid: 1e23d9d601cfe354db8f32c6ec9eac31, type: 3}
      propertyPath: m_LocalPosition.z
      value: 0
      objectReference: {fileID: 0}
    - target: {fileID: 7321961819201808688, guid: 1e23d9d601cfe354db8f32c6ec9eac31, type: 3}
      propertyPath: m_LocalRotation.w
      value: 1
      objectReference: {fileID: 0}
    - target: {fileID: 7321961819201808688, guid: 1e23d9d601cfe354db8f32c6ec9eac31, type: 3}
      propertyPath: m_LocalRotation.x
      value: 0
      objectReference: {fileID: 0}
    - target: {fileID: 7321961819201808688, guid: 1e23d9d601cfe354db8f32c6ec9eac31, type: 3}
      propertyPath: m_LocalRotation.y
      value: 0
      objectReference: {fileID: 0}
    - target: {fileID: 7321961819201808688, guid: 1e23d9d601cfe354db8f32c6ec9eac31, type: 3}
      propertyPath: m_LocalRotation.z
      value: 0
      objectReference: {fileID: 0}
    - target: {fileID: 7321961819201808688, guid: 1e23d9d601cfe354db8f32c6ec9eac31, type: 3}
      propertyPath: m_LocalEulerAnglesHint.x
      value: 0
      objectReference: {fileID: 0}
    - target: {fileID: 7321961819201808688, guid: 1e23d9d601cfe354db8f32c6ec9eac31, type: 3}
      propertyPath: m_LocalEulerAnglesHint.y
      value: 0
      objectReference: {fileID: 0}
    - target: {fileID: 7321961819201808688, guid: 1e23d9d601cfe354db8f32c6ec9eac31, type: 3}
      propertyPath: m_LocalEulerAnglesHint.z
      value: 0
      objectReference: {fileID: 0}
    m_RemovedComponents: []
  m_SourcePrefab: {fileID: 100100000, guid: 1e23d9d601cfe354db8f32c6ec9eac31, type: 3}
--- !u!4 &4742465401718310135 stripped
Transform:
  m_CorrespondingSourceObject: {fileID: 7321961819201808688, guid: 1e23d9d601cfe354db8f32c6ec9eac31, type: 3}
  m_PrefabInstance: {fileID: 2615547246107635143}
  m_PrefabAsset: {fileID: 0}
